[gd_scene load_steps=5 format=3 uid="uid://4yo5bk2nsn"]

[ext_resource type="Script" path="res://Arena.cs" id="1_gbru4"]
[ext_resource type="Script" path="res://Berry.cs" id="2_ddjoh"]

[sub_resource type="StyleBoxFlat" id="StyleBoxFlat_ncppp"]
bg_color = Color(0.937209, 0.429056, 0.134157, 1)

[sub_resource type="StyleBoxFlat" id="StyleBoxFlat_mgfa4"]
bg_color = Color(0.151493, 0.644372, 0.890363, 1)

[node name="Arena" type="Node2D"]
script = ExtResource("1_gbru4")

[node name="Berry" type="Panel" parent="."]
offset_right = 10.0
offset_bottom = 10.0
theme_override_styles/panel = SubResource("StyleBoxFlat_ncppp")
script = ExtResource("2_ddjoh")

[node name="Head" type="Panel" parent="."]
offset_right = 10.0
offset_bottom = 10.0
theme_override_styles/panel = SubResource("StyleBoxFlat_mgfa4")
